364667 430996 449
943173 453865 525
308586 209900 443
311132 933808 525
972757 43003 525
688876 920354 525
455034 7528 449
530806 129821 470
494137 64619 449
357000 389946 436
269769 39954 443
359494 107278 443
388182 399263 436
689789 683464 398
7439 423984 449
435794 527283 470
112025 771909 509
792605 463315 509
118441 446498 449
139242 59966 354
170588 396506 443
363862 982131 525
110079 483819 449
89676 690881 509
411173 357753 449
613618 434410 470
694625 557971 509
494218 231048 449
942753 924780 507
894753 209262 525
969656 697414 525
31699 891234 525
510789 240440 449
338548 221482 443
546647 212665 470
346130 536906 470
201396 679196 509
267801 583100 470
711343 978428 525
564475 930914 525
355994 909817 525
337561 154046 443
83239 101710 341
439990 761651 509
29811 545266 470
26175 173856 383
507908 697255 509
248098 748724 509
423422 252870 449
827240 128312 509
437523 361382 449
592385 765642 509
14954 291326 443
547285 403003 470
988016 436890 525
349217 578386 470
762609 679619 504
849374 341290 525
535784 659996 509
876547 959398 507
498233 962317 525
746731 51953 509
925465 311178 525
48052 134998 354
772701 742875 468
294918 757413 509
322898 914533 525
327931 390605 441
846916 142791 525
621491 828302 509
865560 798829 525
401759 911508 525
406834 776081 509
890869 629270 525
881283 315129 525
212681 200024 373
93011 766702 509
92262 496600 449
370877 841915 525
438126 494201 444
528007 604541 452
146685 811877 509
706703 844125 525
388216 366726 423
303939 720675 509
337919 28383 443
731665 773914 468
530809 833553 509
79003 665792 509
341135 607449 470
6812 518105 470
562808 990990 525
762203 748494 424
850855 771886 525
383030 985764 525
69888 471150 449
400767 458109 449
410399 347947 449
444316 702839 509
857304 773726 525
110366 407253 443
414407 688130 509
243303 691670 509
687849 144348 509
417370 704521 509
95596 895037 525
807272 611609 509
493149 44433 449
745882 693434 504
384988 945817 525
885 339195 443
529637 791511 509
455832 958816 525
610503 476367 470
455948 41161 449
822993 700385 504
804657 404119 509
287290 788670 509
327415 2401 443
327967 264189 407
864391 714543 525
20798 150715 375
343423 658536 509
54768 352206 443
768394 581225 509
274077 380002 441
308195 334145 384
218236 443029 449
865194 193040 525
46598 165489 383
348060 138088 443
602875 34231 470
89923 803790 509
91257 139552 354
331942 597195 470
435834 586494 470
138409 364425 443
860187 370073 525
393905 342289 441
243199 808254 509
148690 195467 383
604530 148694 470
752202 629796 504
535805 509313 470
380280 979842 525
188775 240864 443
34860 42755 324
668018 62658 509
740863 572491 509
319712 431935 449
547047 915437 525
374180 217685 443
871922 962853 507
791346 342682 509
735236 305674 509
36323 488248 449
755666 167064 509
492513 252466 449
197129 111292 383
265878 455391 449
240607 699632 509
842908 293591 525
580630 339641 470
363522 597622 470
525459 976055 525
719286 501568 509
870962 384848 525
489064 51691 449
889061 516328 525
431425 295249 449
586213 645486 509
921205 744847 525
278718 825056 509
162329 598552 470
965847 717942 525
271584 37549 443
228538 965756 525
361867 446636 449
642583 159366 509
500081 3374 449
926734 196114 525
377152 674991 509
82527 706934 509
486035 469523 413
829248 434814 509
584923 54400 470
611431 168439 470
164850 415829 449
379219 791837 509
605271 300320 470
489323 723921 509
242884 994114 525
101967 290809 443
105835 579287 470
434194 771321 509
174026 726652 509
829160 452179 509
614589 265825 470
995817 329069 525
624083 176928 470
384987 518523 470
760446 135123 509
969403 825714 525
816293 426785 509
491990 723666 509
616751 693489 509
786447 967892 525
844543 947569 507
936946 89324 525
992869 929455 507
643212 741407 504
746822 498395 509
319101 404088 441
548051 701128 509
108931 533834 470
652993 689041 442
88207 717350 509
95728 111837 354
659636 796246 504
490617 496229 426
453593 932322 525
664096 598996 509
991173 295021 525
573002 225248 470
19363 770497 509
323119 784952 509
690570 633871 442
905283 310998 525
94458 196967 383
510045 931735 525
938411 799586 525
768368 729180 468
350495 707737 509
767918 295290 509
615948 237475 470
494713 158844 449
594892 411210 470
876453 999273 507
433155 120402 449
207270 140614 383
167787 197634 365
309128 602197 470
679720 629761 442
187776 759413 509
599299 489309 470
92411 747030 509
121753 770218 509
730067 344411 509
623307 97315 470
44691 21973 324
